SiPM,Diode,Diode voltage,Diode frequency,Diode width,Rise time,Window start,Window spacing,box side up,Bias voltage (V),Measurement,Thickness,Date,manufacturer,Condition,scope settings,lab lights,pinhole,time of measurement,sipm channel up
4Blue,Blue C,3.1 V,50 Hz,200ns,5 ns,-120ns,100,4,54.6 V,area,1 cm,25 October 2019,ePlastics,uncoated,PTFEref_Oct23_4blueSipm_BlueCLED_2mmPinhole_v1,main on only,2mm,8:30 AM,1
,,,,,,,,,,,,,,,,,,,
Distance (mm),Int 1 (nWb),Int 2 (nWb) ,Int 3 (nWb),Int 4 (nWb),Stdev 1 (pWb),Stdev 2 (pWb),Stdev 3 (pWb),Stdev 4 (pWb),,,,,,,,,,,
19,6.26,8.46,5.89,7.19,304,372,333,373,values generally higher  than last night - perhaps because its colder this morning (Vbr scales with T),,,,,,,,,,
49,6.71,9.02,6.61,7.85,311,382,358,402,,,,,,,,,,,
79,7.41,9.78,7.34,8.78,323,397,352,414,,,,,,,,,,,
109,8.08,10.67,8.14,9.84,322,409,367,415,,,,,,,,,,,
139,9.03,11.82,9.14,11.1,357,425,383,435,,,,,,,,,,,
169,10.1,13.07,10.14,12.31,355,425,396,436,,,,,,,,,,,
199,11.65,14.69,11.11,13.94,373,451,401,455,,,,,,,,,,,
229,14.42,15.99,10.55,15.71,390,468,400,481,,,,,,,,,,,
,,,,,,,,,,,,,,,,,,,
,,,,,,,,,,,,,,,,,,,
SiPM,Diode,Diode voltage,Diode frequency,Diode width,Rise time,Window start,Window spacing,box side up,Bias voltage (V),Measurement,Thickness,Date,manufacturer,Condition,scope settings,lab lights,pinhole,time of measurement,sipm channel up
4Blue,Blue C,3.1 V,50 Hz,200ns,5 ns,-120ns,100,4,54.6 V,area,8 mm,25 October 2019,ePlastics,uncoated,PTFEref_Oct23_4blueSipm_BlueCLED_2mmPinhole_v1,main on only,2mm,8:45 AM,1
,,,,,,,,,,,,,,,,,,,
Distance (mm),Int 1 (nWb),Int 2 (nWb) ,Int 3 (nWb),Int 4 (nWb),Stdev 1 (pWb),Stdev 2 (pWb),Stdev 3 (pWb),Stdev 4 (pWb),,,,,,,,,,,
11,5.85,7.59,5.43,6.89,289,349,320,348,,,,,,,,,,,
41,6.11,8.14,5.82,7.31,291,358,336,376,,,,,,,,,,,
71,6.57,8.86,6.53,7.88,289,392,333,395,,,,,,,,,,,
101,7.29,9.77,7.31,8.96,331,398,358,411,,,,,,,,,,,
131,8.17,10.83,8.17,9.89,335,409,370,399,,,,,,,,,,,
161,9.08,12.07,9.43,11.04,365,410,378,420,,,,,,,,,,,
191,10.61,13.67,10.41,12.78,355,439,388,461,,,,,,,,,,,
221,13.11,15.14,10.75,15.1,404,453,398,477,,,,,,,,,,,
,,,,,,,,,,,,,,,,,,,
,,,,,,,,,,,,,,,,,,,
SiPM,Diode,Diode voltage,Diode frequency,Diode width,Rise time,Window start,Window spacing,Side up,Bias voltage (V),Measurement,Thickness,Date,manufacturer,Condition,scope settings,lab lights,pinhole,time of measurement,sipm channel up
4Blue,Blue C,3.1 V,50 Hz,200ns,5 ns,-120ns,100,4,54.6 V,area,6 mm,25 October 2019,ePlastics,uncoated,PTFEref_Oct23_4blueSipm_BlueCLED_2mmPinhole_v1,main on only,2mm,8:55 AM,1
,,,,,,,,,,,,,,,,,,,
Distance (mm),Int 1 (nWb),Int 2 (nWb) ,Int 3 (nWb),Int 4 (nWb),Stdev 1 (pWb),Stdev 2 (pWb),Stdev 3 (pWb),Stdev 4 (pWb),,,,,,,,,,,
15,5.09,6.85,4.55,5.93,282,433,305,346,,,,,,,,,,,
45,5.5,7.32,5.12,6.62,285,352,317,361,,,,,,,,,,,
75,6.09,8.02,5.74,7.29,304,365,327,374,,,,,,,,,,,
105,6.71,8.88,6.61,8.17,308,377,338,378,,,,,,,,,,,
135,7.59,10.24,7.5,9.29,323,397,370,414,,,,,,,,,,,
165,8.87,11.75,8.71,10.73,343,419,385,430,,,,,,,,,,,
195,10.19,13.2,9.76,12.39,351,428,378,436,,,,,,,,,,,
225,13.07,14.86,10.24,15.1,384,460,407,450,,,,,,,,,,,
,,,,,,,,,,,,,,,,,,,
SiPM,Diode,Diode voltage,Diode frequency,Diode width,Rise time,Window start,Window spacing,Side up,Bias voltage (V),Measurement,Thickness,Date,manufacturer,Condition,scope settings,lab lights,pinhole,time of measurement,sipm channel up
4Blue,Blue C,3.1 V,50 Hz,200ns,5 ns,-120ns,100,4,54.6 V,area,5 mm,25 October 2019,ePlastics,uncoated,PTFEref_Oct23_4blueSipm_BlueCLED_2mmPinhole_v1,main on only,2mm,7:20 PM,1
,,,,,,,,,,,,,,,,,,,
Distance (mm),Int 1 (nWb),Int 2 (nWb) ,Int 3 (nWb),Int 4 (nWb),Stdev 1 (pWb),Stdev 2 (pWb),Stdev 3 (pWb),Stdev 4 (pWb),,,,,,,,,,,
22,4.51,5.96,4,5.03,256,310,278,334,,,,,,,,,,,
52,4.99,6.39,4.47,5.67,264,318,294,347,,,,,,,,,,,
82,5.55,6.99,5.01,6.39,283,342,297,537,,,,,,,,,,,
112,6.07,7.98,5.77,7.35,300,353,320,365,,,,,,,,,,,
142,7.27,9.44,6.94,8.87,309,389,347,415,,,,,,,,,,,
172,8.21,10.56,8.14,9.79,330,395,363,409,,,,,,,,,,,
202,9.75,12.49,9.47,11.98,371,426,380,439,,,,,,,,,,,
232,12.55,13.99,9.64,14.61,369,448,386,476,,,,,,,,,,,